"Section","Catchline","Definiendum","Definition","Scope"
"7 U.S. Code § 1a","Definitions","Alternative trading system","The term “alternative trading system” means an organization, association, or group of persons that—
(A) is registered as a broker or dealer pursuant to section 15(b) of the Securities Exchange Act of 1934 [15 U.S.C. 78o (b)] (except paragraph (11) thereof);
(B) performs the functions commonly performed by an exchange (as defined in section 3(a)(1) of the Securities Exchange Act of 1934 [15 U.S.C. 78c (a)(1)]);
(C) does not—
(i) set rules governing the conduct of subscribers other than the conduct of such subscribers’ trading on the alternative trading system; or
(ii) discipline subscribers other than by exclusion from trading; and
(D) is exempt from the definition of the term “exchange” under such section 3 (a)(1) [15 U.S.C. 78c (a)(1)] by rule or regulation of the Securities and Exchange Commission on terms that require compliance with regulations of its trading functions.","As used in this chapter:"
"7 U.S. Code § 1a","Definitions","Appropriate Federal banking agency","The term “appropriate Federal banking agency”—
(A) has the meaning given the term in section 1813 of title 12;
(B) means the Board in the case of a noninsured State bank; and
(C) is the Farm Credit Administration for farm credit system institutions.","As used in this chapter:"
"7 U.S. Code § 1a","Definitions","Associated person of a security-based swap dealer or major security-based swap participant","The term “associated person of a security-based swap dealer or major security-based swap participant” has the meaning given the term in section 3(a) of the Securities Exchange Act of 1934 (15 U.S.C. 78c (a)).","As used in this chapter:"
"7 U.S. Code § 1a","Definitions","Associated person of a swap dealer or major swap participant","(A) In general
The term “associated person of a swap dealer or major swap participant” means a person who is associated with a swap dealer or major swap participant as a partner, officer, employee, or agent (or any person occupying a similar status or performing similar functions), in any capacity that involves—
(i) the solicitation or acceptance of swaps; or
(ii) the supervision of any person or persons so engaged.
(B) Exclusion
Other than for purposes of section 6s (b)(6) of this title, the term “associated person of a swap dealer or major swap participant” does not include any person associated with a swap dealer or major swap participant the functions of which are solely clerical or ministerial.","As used in this chapter:"
"7 U.S. Code § 1a","Definitions","Board","The term “Board” means the Board of Governors of the Federal Reserve System.","As used in this chapter:"
"7 U.S. Code § 1a","Definitions","Board of trade","The term “board of trade” means any organized exchange or other trading facility.","As used in this chapter:"
"7 U.S. Code § 1a","Definitions","Cleared swap","The term “cleared swap” means any swap that is, directly or indirectly, submitted to and cleared by a derivatives clearing organization registered with the Commission.","As used in this chapter:"
"7 U.S. Code § 1a","Definitions","Commission","The term “Commission” means the Commodity Futures Trading Commission established under section 2 (a)(2) of this title.","As used in this chapter:"
"7 U.S. Code § 1a","Definitions","Commodity","The term “commodity” means wheat, cotton, rice, corn, oats, barley, rye, flaxseed, grain sorghums, mill feeds, butter, eggs, Solanum tuberosum (Irish potatoes), wool, wool tops, fats and oils (including lard, tallow, cottonseed oil, peanut oil, soybean oil, and all other fats and oils), cottonseed meal, cottonseed, peanuts, soybeans, soybean meal, livestock, livestock products, and frozen concentrated orange juice, and all other goods and articles, except onions (as provided by section 13–1 of this title) and motion picture box office receipts (or any index, measure, value, or data related to such receipts), and all services, rights, and interests (except motion picture box office receipts, or any index, measure, value or data related to such receipts) in which contracts for future delivery are presently or in the future dealt in.","As used in this chapter:"
"7 U.S. Code § 1a","Definitions","Commodity pool","(A) In general
The term “commodity pool” means any investment trust, syndicate, or similar form of enterprise operated for the purpose of trading in commodity interests, including any—
(i) commodity for future delivery, security futures product, or swap;
(ii) agreement, contract, or transaction described in section 2 (c)(2)(C)(i) of this title or section 2 (c)(2)(D)(i) of this title;
(iii) commodity option authorized under section 6c of this title; or
(iv) leverage transaction authorized under section 23 of this title.
(B) Further definition
The Commission, by rule or regulation, may include within, or exclude from, the term “commodity pool” any investment trust, syndicate, or similar form of enterprise if the Commission determines that the rule or regulation will effectuate the purposes of this chapter.","As used in this chapter:"
"7 U.S. Code § 1a","Definitions","Commodity pool operator","(A) In general
The term “commodity pool operator” means any person—
(i) engaged in a business that is of the nature of a commodity pool, investment trust, syndicate, or similar form of enterprise, and who, in connection therewith, solicits, accepts, or receives from others, funds, securities, or property, either directly or through capital contributions, the sale of stock or other forms of securities, or otherwise, for the purpose of trading in commodity interests, including any—
(I) commodity for future delivery, security futures product, or swap;
(II) agreement, contract, or transaction described in section 2 (c)(2)(C)(i) of this title or section 2 (c)(2)(D)(i) of this title;
(III) commodity option authorized under section 6c of this title; or
(IV) leverage transaction authorized under section 23 of this title; or
(ii) who is registered with the Commission as a commodity pool operator.
(B) Further definition
The Commission, by rule or regulation, may include within, or exclude from, the term “commodity pool operator” any person engaged in a business that is of the nature of a commodity pool, investment trust, syndicate, or similar form of enterprise if the Commission determines that the rule or regulation will effectuate the purposes of this chapter.","As used in this chapter:"
"7 U.S. Code § 1a","Definitions","Commodity trading advisor","(A) In general
Except as otherwise provided in this paragraph, the term “commodity trading advisor” means any person who—
(i) for compensation or profit, engages in the business of advising others, either directly or through publications, writings, or electronic media, as to the value of or the advisability of trading in—
(I) any contract of sale of a commodity for future delivery, security futures product, or swap;
(II) any agreement, contract, or transaction described in section 2 (c)(2)(C)(i) of this title or section 2 (c)(2)(D)(i) of this title  [1]
(III) any commodity option authorized under section 6c of this title; or
(IV) any leverage transaction authorized under section 23 of this title;
(ii) for compensation or profit, and as part of a regular business, issues or promulgates analyses or reports concerning any of the activities referred to in clause (i).
(iii) is registered with the Commission as a commodity trading advisor; or
(iv) the Commission, by rule or regulation, may include if the Commission determines that the rule or regulation will effectuate the purposes of this chapter.
(B) Exclusions
Subject to subparagraph (C), the term “commodity trading advisor” does not include—
(i) any bank or trust company or any person acting as an employee thereof;
(ii) any news reporter, news columnist, or news editor of the print or electronic media, or any lawyer, accountant, or teacher;
(iii) any floor broker or futures commission merchant;
(iv) the publisher or producer of any print or electronic data of general and regular dissemination, including its employees;
(v) the fiduciary of any defined benefit plan that is subject to the Employee Retirement Income Security Act of 1974 (29 U.S.C. 1001 et seq.);
(vi) any contract market or derivatives transaction execution facility; and
(vii) such other persons not within the intent of this paragraph as the Commission may specify by rule, regulation, or order.
(C) Incidental services
Subparagraph (B) shall apply only if the furnishing of such services by persons referred to in subparagraph (B) is solely incidental to the conduct of their business or profession.
(D) Advisors
The Commission, by rule or regulation, may include within the term “commodity trading advisor”, any person advising as to the value of commodities or issuing reports or analyses concerning commodities if the Commission determines that the rule or regulation will effectuate the purposes of this paragraph.","As used in this chapter:"
"7 U.S. Code § 1a","Definitions","Contract of sale","The term “contract of sale” includes sales, agreements of sale, and agreements to sell.","As used in this chapter:"
"7 U.S. Code § 1a","Definitions","Cooperative association of producers","The term “cooperative association of producers” means any cooperative association, corporate, or otherwise, not less than 75 percent in good faith owned or controlled, directly or indirectly, by producers of agricultural products and otherwise complying with sections 291 and 292 of this title, including any organization acting for a group of such associations and owned or controlled by such associations, except that business done for or with the United States, or any agency thereof, shall not be considered either member or nonmember business in determining the compliance of any such association with this chapter.","As used in this chapter:"
"7 U.S. Code § 1a","Definitions","Derivatives clearing organization","(A) In general
The term “derivatives clearing organization” means a clearinghouse, clearing association, clearing corporation, or similar entity, facility, system, or organization that, with respect to an agreement, contract, or transaction—
(i) enables each party to the agreement, contract, or transaction to substitute, through novation or otherwise, the credit of the derivatives clearing organization for the credit of the parties;
(ii) arranges or provides, on a multilateral basis, for the settlement or netting of obligations resulting from such agreements, contracts, or transactions executed by participants in the derivatives clearing organization; or
(iii) otherwise provides clearing services or arrangements that mutualize or transfer among participants in the derivatives clearing organization the credit risk arising from such agreements, contracts, or transactions executed by the participants.
(B) Exclusions
The term “derivatives clearing organization” does not include an entity, facility, system, or organization solely because it arranges or provides for—
(i) settlement, netting, or novation of obligations resulting from agreements, contracts, or transactions, on a bilateral basis and without a central counterparty;
(ii) settlement or netting of cash payments through an interbank payment system; or
(iii) settlement, netting, or novation of obligations resulting from a sale of a commodity in a transaction in the spot market for the commodity.","As used in this chapter:"
"7 U.S. Code § 1a","Definitions","Electronic trading facility","The term “electronic trading facility” means a trading facility that—
(A) operates by means of an electronic or telecommunications network; and
(B) maintains an automated audit trail of bids, offers, and the matching of orders or the execution of transactions on the facility.","As used in this chapter:"
"7 U.S. Code § 1a","Definitions","Eligible commercial entity","The term “eligible commercial entity” means, with respect to an agreement, contract or transaction in a commodity—
(A) an eligible contract participant described in clause (i), (ii), (v), (vii), (viii), or (ix) of paragraph (18)(A) that, in connection with its business—
(i) has a demonstrable ability, directly or through separate contractual arrangements, to make or take delivery of the underlying commodity;
(ii) incurs risks, in addition to price risk, related to the commodity; or
(iii) is a dealer that regularly provides risk management or hedging services to, or engages in market-making activities with, the foregoing entities involving transactions to purchase or sell the commodity or derivative agreements, contracts, or transactions in the commodity;
(B) an eligible contract participant, other than a natural person or an instrumentality, department, or agency of a State or local governmental entity, that—
(i) regularly enters into transactions to purchase or sell the commodity or derivative agreements, contracts, or transactions in the commodity; and
(ii) either—
(I) in the case of a collective investment vehicle whose participants include persons other than—
(aa) qualified eligible persons, as defined in Commission rule 4.7(a) (17 CFR 4.7(a));
(bb) accredited investors, as defined in Regulation D of the Securities and Exchange Commission under the Securities Act of 1933 [15 U.S.C. 77a et seq.] (17 CFR 230.501(a)), with total assets of $2,000,000; or
(cc) qualified purchasers, as defined in section 2(a)(51)(A) of the Investment Company Act of 1940 [15 U.S.C. 80a–2 (a)(51)(A)];
  in each case as in effect on December 21, 2000, has, or is one of a group of vehicles under common control or management having in the aggregate, $1,000,000,000 in total assets; or
(II) in the case of other persons, has, or is one of a group of persons under common control or management having in the aggregate, $100,000,000 in total assets; or
(C) such other persons as the Commission shall determine appropriate and shall designate by rule, regulation, or order.","As used in this chapter:"
"7 U.S. Code § 1a","Definitions","Eligible contract participant","The term “eligible contract participant” means—
(A) acting for its own account—
(i) a financial institution;
(ii) an insurance company that is regulated by a State, or that is regulated by a foreign government and is subject to comparable regulation as determined by the Commission, including a regulated subsidiary or affiliate of such an insurance company;
(iii) an investment company subject to regulation under the Investment Company Act of 1940 (15 U.S.C. 80a–1 et seq.) or a foreign person performing a similar role or function subject as such to foreign regulation (regardless of whether each investor in the investment company or the foreign person is itself an eligible contract participant);
(iv) a commodity pool that—
(I) has total assets exceeding $5,000,000; and
(II) is formed and operated by a person subject to regulation under this chapter or a foreign person performing a similar role or function subject as such to foreign regulation (regardless of whether each investor in the commodity pool or the foreign person is itself an eligible contract participant) provided, however, that for purposes of section 2 (c)(2)(B)(vi) of this title and section 2 (c)(2)(C)(vii) of this title, the term “eligible contract participant” shall not include a commodity pool in which any participant is not otherwise an eligible contract participant;
(v) a corporation, partnership, proprietorship, organization, trust, or other entity—
(I) that has total assets exceeding $10,000,000;
(II) the obligations of which under an agreement, contract, or transaction are guaranteed or otherwise supported by a letter of credit or keepwell, support, or other agreement by an entity described in subclause (I), in clause (i), (ii), (iii), (iv), or (vii), or in subparagraph (C); or
(III) that—
(aa) has a net worth exceeding $1,000,000; and
(bb) enters into an agreement, contract, or transaction in connection with the conduct of the entity’s business or to manage the risk associated with an asset or liability owned or incurred or reasonably likely to be owned or incurred by the entity in the conduct of the entity’s business;
(vi) an employee benefit plan subject to the Employee Retirement Income Security Act of 1974 (29 U.S.C. 1001 et seq.), a governmental employee benefit plan, or a foreign person performing a similar role or function subject as such to foreign regulation—
(I) that has total assets exceeding $5,000,000; or
(II) the investment decisions of which are made by—
(aa) an investment adviser or commodity trading advisor subject to regulation under the Investment Advisers Act of 1940 (15 U.S.C. 80b–1 et seq.) or this chapter;
(bb) a foreign person performing a similar role or function subject as such to foreign regulation;
(cc) a financial institution; or
(dd) an insurance company described in clause (ii), or a regulated subsidiary or affiliate of such an insurance company;
(vii)
(I) a governmental entity (including the United States, a State, or a foreign government) or political subdivision of a governmental entity;
(II) a multinational or supranational government entity; or
(III) an instrumentality, agency, or department of an entity described in subclause (I) or (II);
 except that such term does not include an entity, instrumentality, agency, or department referred to in subclause (I) or (III) of this clause unless (aa) the entity, instrumentality, agency, or department is a person described in clause (i), (ii), or (iii) of paragraph (17)(A); (bb) the entity, instrumentality, agency, or department owns and invests on a discretionary basis $50,000,000 or more in investments; or (cc) the agreement, contract, or transaction is offered by, and entered into with, an entity that is listed in any of subclauses (I) through (VI) of section 2 (c)(2)(B)(ii) of this title;
(viii)
(I) a broker or dealer subject to regulation under the Securities Exchange Act of 1934 (15 U.S.C. 78a et seq.) or a foreign person performing a similar role or function subject as such to foreign regulation, except that, if the broker or dealer or foreign person is a natural person or proprietorship, the broker or dealer or foreign person shall not be considered to be an eligible contract participant unless the broker or dealer or foreign person also meets the requirements of clause (v) or (xi);
(II) an associated person of a registered broker or dealer concerning the financial or securities activities of which the registered person makes and keeps records under section 15C(b) or 17(h) of the Securities Exchange Act of 1934 (15 U.S.C. 78o–5 (b), 78q (h));
(III) an investment bank holding company (as defined in section 17(i)  [2] of the Securities Exchange Act of 1934 (15 U.S.C. 78q (i));  [3]
(ix) a futures commission merchant subject to regulation under this chapter or a foreign person performing a similar role or function subject as such to foreign regulation, except that, if the futures commission merchant or foreign person is a natural person or proprietorship, the futures commission merchant or foreign person shall not be considered to be an eligible contract participant unless the futures commission merchant or foreign person also meets the requirements of clause (v) or (xi);
(x) a floor broker or floor trader subject to regulation under this chapter in connection with any transaction that takes place on or through the facilities of a registered entity (other than an electronic trading facility with respect to a significant price discovery contract) or an exempt board of trade, or any affiliate thereof, on which such person regularly trades; or
(xi) an individual who has amounts invested on a discretionary basis, the aggregate of which is in excess of—
(I) $10,000,000; or
(II) $5,000,000 and who enters into the agreement, contract, or transaction in order to manage the risk associated with an asset owned or liability incurred, or reasonably likely to be owned or incurred, by the individual;
(B)
(i) a person described in clause (i), (ii), (iv), (v), (viii), (ix), or (x) of subparagraph (A) or in subparagraph (C), acting as broker or performing an equivalent agency function on behalf of another person described in subparagraph (A) or (C); or
(ii) an investment adviser subject to regulation under the Investment Advisers Act of 1940 [15 U.S.C. 80b–1 et seq.], a commodity trading advisor subject to regulation under this chapter, a foreign person performing a similar role or function subject as such to foreign regulation, or a person described in clause (i), (ii), (iv), (v), (viii), (ix), or (x) of subparagraph (A) or in subparagraph (C), in any such case acting as investment manager or fiduciary (but excluding a person acting as broker or performing an equivalent agency function) for another person described in subparagraph (A) or (C) and who is authorized by such person to commit such person to the transaction; or
(C) any other person that the Commission determines to be eligible in light of the financial or other qualifications of the person.","As used in this chapter:"
"7 U.S. Code § 1a","Definitions","Excluded commodity","The term “excluded commodity” means—
(i) an interest rate, exchange rate, currency, security, security index, credit risk or measure, debt or equity instrument, index or measure of inflation, or other macroeconomic index or measure;
(ii) any other rate, differential, index, or measure of economic or commercial risk, return, or value that is—
(I) not based in substantial part on the value of a narrow group of commodities not described in clause (i); or
(II) based solely on one or more commodities that have no cash market;
(iii) any economic or commercial index based on prices, rates, values, or levels that are not within the control of any party to the relevant contract, agreement, or transaction; or
(iv) an occurrence, extent of an occurrence, or contingency (other than a change in the price, rate, value, or level of a commodity not described in clause (i)) that is—
(I) beyond the control of the parties to the relevant contract, agreement, or transaction; and
(II) associated with a financial, commercial, or economic consequence.","As used in this chapter:"
"7 U.S. Code § 1a","Definitions","Exempt commodity","The term “exempt commodity” means a commodity that is not an excluded commodity or an agricultural commodity.","As used in this chapter:"
"7 U.S. Code § 1a","Definitions","Financial institution","The term “financial institution” means—
(A) a corporation operating under the fifth undesignated paragraph of section 25 of the Federal Reserve Act (12 U.S.C. 603), commonly known as “an agreement corporation”;
(B) a corporation organized under section 25A of the Federal Reserve Act (12 U.S.C. 611 et seq.), commonly known as an “Edge Act corporation”;
(C) an institution that is regulated by the Farm Credit Administration;
(D) a Federal credit union or State credit union (as defined in section 1752 of title 12);
(E) a depository institution (as defined in section 1813 of title 12);
(F) a foreign bank or a branch or agency of a foreign bank (each as defined in section 3101 of title 12);
(G) any financial holding company (as defined in section 1841 of title 12);
(H) a trust company; or
(I) a similarly regulated subsidiary or affiliate of an entity described in any of subparagraphs (A) through (H).","As used in this chapter:"
"7 U.S. Code § 1a","Definitions","Floor broker","(A) In general
The term “floor broker” means any person—
(i) who, in or surrounding any pit, ring, post, or other place provided by a contract market for the meeting of persons similarly engaged, shall purchase or sell for any other person—
(I) any commodity for future delivery, security futures product, or swap; or
(II) any commodity option authorized under section 6c of this title; or
(ii) who is registered with the Commission as a floor broker.
(B) Further definition
The Commission, by rule or regulation, may include within, or exclude from, the term “floor broker” any person in or surrounding any pit, ring, post, or other place provided by a contract market for the meeting of persons similarly engaged who trades for any other person if the Commission determines that the rule or regulation will effectuate the purposes of this chapter.","As used in this chapter:"
"7 U.S. Code § 1a","Definitions","Floor trader","(A) In general
The term “floor trader” means any person—
(i) who, in or surrounding any pit, ring, post, or other place provided by a contract market for the meeting of persons similarly engaged, purchases, or sells solely for such person’s own account—
(I) any commodity for future delivery, security futures product, or swap; or
(II) any commodity option authorized under section 6c of this title; or
(ii) who is registered with the Commission as a floor trader.
(B) Further definition
The Commission, by rule or regulation, may include within, or exclude from, the term “floor trader” any person in or surrounding any pit, ring, post, or other place provided by a contract market for the meeting of persons similarly engaged who trades solely for such person’s own account if the Commission determines that the rule or regulation will effectuate the purposes of this chapter.","As used in this chapter:"
"7 U.S. Code § 1a","Definitions","Foreign exchange forward","The term “foreign exchange forward” means a transaction that solely involves the exchange of 2 different currencies on a specific future date at a fixed rate agreed upon on the inception of the contract covering the exchange.","As used in this chapter:"
"7 U.S. Code § 1a","Definitions","Foreign exchange swap","The term “foreign exchange swap” means a transaction that solely involves—
(A) an exchange of 2 different currencies on a specific date at a fixed rate that is agreed upon on the inception of the contract covering the exchange; and
(B) a reverse exchange of the 2 currencies described in subparagraph (A) at a later date and at a fixed rate that is agreed upon on the inception of the contract covering the exchange.","As used in this chapter:"
"7 U.S. Code § 1a","Definitions","Foreign futures authority","The term “foreign futures authority” means any foreign government, or any department, agency, governmental body, or regulatory organization empowered by a foreign government to administer or enforce a law, rule, or regulation as it relates to a futures or options matter, or any department or agency of a political subdivision of a foreign government empowered to administer or enforce a law, rule, or regulation as it relates to a futures or options matter.","As used in this chapter:"
"7 U.S. Code § 1a","Definitions","Future delivery","The term “future delivery” does not include any sale of any cash commodity for deferred shipment or delivery.","As used in this chapter:"
"7 U.S. Code § 1a","Definitions","Futures commission merchant","(A) In general
The term “futures commission merchant” means an individual, association, partnership, corporation, or trust—
(i) that—
(I) is—
(aa) engaged in soliciting or in accepting orders for—
(AA) the purchase or sale of a commodity for future delivery;
(BB) a security futures product;
(CC) a swap;
(DD) any agreement, contract, or transaction described in section 2 (c)(2)(C)(i) of this title or section 2 (c)(2)(D)(i) of this title;
(EE) any commodity option authorized under section 6c of this title; or
(FF) any leverage transaction authorized under section 23 of this title; or
(bb) acting as a counterparty in any agreement, contract, or transaction described in section 2 (c)(2)(C)(i) of this title or section 2 (c)(2)(D)(i) of this title; and
(II) in or in connection with the activities described in items (aa) or (bb) of subclause (I), accepts any money, securities, or property (or extends credit in lieu thereof) to margin, guarantee, or secure any trades or contracts that result or may result therefrom; or
(ii) that is registered with the Commission as a futures commission merchant.
(B) Further definition
The Commission, by rule or regulation, may include within, or exclude from, the term “futures commission merchant” any person who engages in soliciting or accepting orders for, or acting as a counterparty in, any agreement, contract, or transaction subject to this chapter, and who accepts any money, securities, or property (or extends credit in lieu thereof) to margin, guarantee, or secure any trades or contracts that result or may result therefrom, if the Commission determines that the rule or regulation will effectuate the purposes of this chapter.","As used in this chapter:"
"7 U.S. Code § 1a","Definitions","Hybrid instrument","The term “hybrid instrument” means a security having one or more payments indexed to the value, level, or rate of, or providing for the delivery of, one or more commodities.","As used in this chapter:"
"7 U.S. Code § 1a","Definitions","Interstate commerce","The term “interstate commerce” means commerce—
(A) between any State, territory, or possession, or the District of Columbia, and any place outside thereof; or
(B) between points within the same State, territory, or possession, or the District of Columbia, but through any place outside thereof, or within any territory or possession, or the District of Columbia.","As used in this chapter:"
"7 U.S. Code § 1a","Definitions","Introducing broker","(A) In general
The term “introducing broker” means any person (except an individual who elects to be and is registered as an associated person of a futures commission merchant)—
(i) who—
(I) is engaged in soliciting or in accepting orders for—
(aa) the purchase or sale of any commodity for future delivery, security futures product, or swap;
(bb) any agreement, contract, or transaction described in section 2 (c)(2)(C)(i) of this title or section 2 (c)(2)(D)(i) of this title;
(cc) any commodity option authorized under section 6c of this title; or
(dd) any leverage transaction authorized under section 23 of this title; and
(II) does not accept any money, securities, or property (or extend credit in lieu thereof) to margin, guarantee, or secure any trades or contracts that result or may result therefrom; or
(ii) who is registered with the Commission as an introducing broker.
(B) Further definition
The Commission, by rule or regulation, may include within, or exclude from, the term “introducing broker” any person who engages in soliciting or accepting orders for any agreement, contract, or transaction subject to this chapter, and who does not accept any money, securities, or property (or extend credit in lieu thereof) to margin, guarantee, or secure any trades or contracts that result or may result therefrom, if the Commission determines that the rule or regulation will effectuate the purposes of this chapter.","As used in this chapter:"
"7 U.S. Code § 1a","Definitions","Major security-based swap participant","The term “major security-based swap participant” has the meaning given the term in section 3(a) of the Securities Exchange Act of 1934 (15 U.S.C. 78c (a)).","As used in this chapter:"
"7 U.S. Code § 1a","Definitions","Major swap participant","(A) In general
The term “major swap participant” means any person who is not a swap dealer, and—
(i) maintains a substantial position in swaps for any of the major swap categories as determined by the Commission, excluding—
(I) positions held for hedging or mitigating commercial risk; and
(II) positions maintained by any employee benefit plan (or any contract held by such a plan) as defined in paragraphs (3) and (32) of section 3 of the Employee Retirement Income Security Act of 1974 (29 U.S.C. 1002) for the primary purpose of hedging or mitigating any risk directly associated with the operation of the plan;
(ii) whose outstanding swaps create substantial counterparty exposure that could have serious adverse effects on the financial stability of the United States banking system or financial markets; or
(iii)
(I) is a financial entity that is highly leveraged relative to the amount of capital it holds and that is not subject to capital requirements established by an appropriate Federal banking agency; and
(II) maintains a substantial position in outstanding swaps in any major swap category as determined by the Commission.
(B) Definition of substantial position
For purposes of subparagraph (A), the Commission shall define by rule or regulation the term “substantial position” at the threshold that the Commission determines to be prudent for the effective monitoring, management, and oversight of entities that are systemically important or can significantly impact the financial system of the United States. In setting the definition under this subparagraph, the Commission shall consider the person’s relative position in uncleared as opposed to cleared swaps and may take into consideration the value and quality of collateral held against counterparty exposures.
(C) Scope of designation
For purposes of subparagraph (A), a person may be designated as a major swap participant for 1 or more categories of swaps without being classified as a major swap participant for all classes of swaps.
(D) Exclusions
The definition under this paragraph shall not include an entity whose primary business is providing financing, and uses derivatives for the purpose of hedging underlying commercial risks related to interest rate and foreign currency exposures, 90 percent or more of which arise from financing that facilitates the purchase or lease of products, 90 percent or more of which are manufactured by the parent company or another subsidiary of the parent company.","As used in this chapter:"
"7 U.S. Code § 1a","Definitions","Member of a registered entity; member of a derivatives transaction execution facility","The term “member” means, with respect to a registered entity or derivatives transaction execution facility, an individual, association, partnership, corporation, or trust—
(A) owning or holding membership in, or admitted to membership representation on, the registered entity or derivatives transaction execution facility; or
(B) having trading privileges on the registered entity or derivatives transaction execution facility.
A participant in an alternative trading system that is designated as a contract market pursuant to section 7b–1 of this title is deemed a member of the contract market for purposes of transactions in security futures products through the contract market.","As used in this chapter:"
"7 U.S. Code § 1a","Definitions","Narrow-based security index","(A) The term “narrow-based security index” means an index—
(i) that has 9 or fewer component securities;
(ii) in which a component security comprises more than 30 percent of the index’s weighting;
(iii) in which the five highest weighted component securities in the aggregate comprise more than 60 percent of the index’s weighting; or
(iv) in which the lowest weighted component securities comprising, in the aggregate, 25 percent of the index’s weighting have an aggregate dollar value of average daily trading volume of less than $50,000,000 (or in the case of an index with 15 or more component securities, $30,000,000), except that if there are two or more securities with equal weighting that could be included in the calculation of the lowest weighted component securities comprising, in the aggregate, 25 percent of the index’s weighting, such securities shall be ranked from lowest to highest dollar value of average daily trading volume and shall be included in the calculation based on their ranking starting with the lowest ranked security.
(B) Notwithstanding subparagraph (A), an index is not a narrow-based security index if—
(i)
(I) it has at least 9 component securities;
(II) no component security comprises more than 30 percent of the index’s weighting; and
(III) each component security is—
(aa) registered pursuant to section 12 of the Securities Exchange Act of 1934 [15 U.S.C. 78l];
(bb) one of 750 securities with the largest market capitalization; and
(cc) one of 675 securities with the largest dollar value of average daily trading volume;
(ii) a board of trade was designated as a contract market by the Commodity Futures Trading Commission with respect to a contract of sale for future delivery on the index, before December 21, 2000;
(iii)
(I) a contract of sale for future delivery on the index traded on a designated contract market or registered derivatives transaction execution facility for at least 30 days as a contract of sale for future delivery on an index that was not a narrow-based security index; and
(II) it has been a narrow-based security index for no more than 45 business days over 3 consecutive calendar months;
(iv) a contract of sale for future delivery on the index is traded on or subject to the rules of a foreign board of trade and meets such requirements as are jointly established by rule or regulation by the Commission and the Securities and Exchange Commission;
(v) no more than 18 months have passed since December 21, 2000, and—
(I) it is traded on or subject to the rules of a foreign board of trade;
(II) the offer and sale in the United States of a contract of sale for future delivery on the index was authorized before December 21, 2000; and
(III) the conditions of such authorization continue to be met; or
(vi) a contract of sale for future delivery on the index is traded on or subject to the rules of a board of trade and meets such requirements as are jointly established by rule, regulation, or order by the Commission and the Securities and Exchange Commission.
(C) Within 1 year after December 21, 2000, the Commission and the Securities and Exchange Commission jointly shall adopt rules or regulations that set forth the requirements under subparagraph (B)(iv).
(D) An index that is a narrow-based security index solely because it was a narrow-based security index for more than 45 business days over 3 consecutive calendar months pursuant to clause (iii) of subparagraph (B) shall not be a narrow-based security index for the 3 following calendar months.
(E) For purposes of subparagraphs (A) and (B)—
(i) the dollar value of average daily trading volume and the market capitalization shall be calculated as of the preceding 6 full calendar months; and
(ii) the Commission and the Securities and Exchange Commission shall, by rule or regulation, jointly specify the method to be used to determine market capitalization and dollar value of average daily trading volume.","As used in this chapter:"
"7 U.S. Code § 1a","Definitions","Option","The term “option” means an agreement, contract, or transaction that is of the character of, or is commonly known to the trade as, an “option”, “privilege”, “indemnity”, “bid”, “offer”, “put”, “call”, “advance guaranty”, or “decline guaranty”.","As used in this chapter:"
"7 U.S. Code § 1a","Definitions","Organized exchange","The term “organized exchange” means a trading facility that—
(A) permits trading—
(i) by or on behalf of a person that is not an eligible contract participant; or
(ii) by persons other than on a principal-to-principal basis; or
(B) has adopted (directly or through another nongovernmental entity) rules that—
(i) govern the conduct of participants, other than rules that govern the submission of orders or execution of transactions on the trading facility; and
(ii) include disciplinary sanctions other than the exclusion of participants from trading.","As used in this chapter:"
"7 U.S. Code § 1a","Definitions","Person","The term “person” imports the plural or singular, and includes individuals, associations, partnerships, corporations, and trusts.","As used in this chapter:"
"7 U.S. Code § 1a","Definitions","Prudential regulator","The term “prudential regulator” means—
(A) the Board in the case of a swap dealer, major swap participant, security-based swap dealer, or major security-based swap participant that is—
(i) a State-chartered bank that is a member of the Federal Reserve System;
(ii) a State-chartered branch or agency of a foreign bank;
(iii) any foreign bank which does not operate an insured branch;
(iv) any organization operating under section 25A of the Federal Reserve Act [12 U.S.C. 611 et seq.] or having an agreement with the Board under section 225 of the Federal Reserve Act  [4] ;
(v) any bank holding company (as defined in section 2 of the Bank Holding Company Act of 1965  [4] (12 U.S.C. 1841)), any foreign bank (as defined in section 3101 (7) of title 12) that is treated as a bank holding company under section 3106 (a) of title 12, and any subsidiary of such a company or foreign bank (other than a subsidiary that is described in subparagraph (A) or (B) or that is required to be registered with the Commission as a swap dealer or major swap participant under this chapter or with the Securities and Exchange Commission as a security-based swap dealer or major security-based swap participant);
(vi) after the transfer date (as defined in section 311 of the Dodd-Frank Wall Street Reform and Consumer Protection Act [12 U.S.C. 5411]), any savings and loan holding company (as defined in section 1467a of title 12) and any subsidiary of such company (other than a subsidiary that is described in subparagraph (A) or (B) or that is required to be registered as a swap dealer or major swap participant with the Commission under this chapter or with the Securities and Exchange Commission as a security-based swap dealer or major security-based swap participant); or
(vii) any organization operating under section 25A of the Federal Reserve Act (12 U.S.C. 611 et seq.) or having an agreement with the Board under section 25 of the Federal Reserve Act (12 U.S.C. 601 et seq.);
(B) the Office of the Comptroller of the Currency in the case of a swap dealer, major swap participant, security-based swap dealer, or major security-based swap participant that is—
(i) a national bank;
(ii) a federally chartered branch or agency of a foreign bank; or
(iii) any Federal savings association;
(C) the Federal Deposit Insurance Corporation in the case of a swap dealer, major swap participant, security-based swap dealer, or major security-based swap participant that is—
(i) a State-chartered bank that is not a member of the Federal Reserve System; or
(ii) any State savings association;
(D) the Farm Credit Administration, in the case of a swap dealer, major swap participant, security-based swap dealer, or major security-based swap participant that is an institution chartered under the Farm Credit Act of 1971 (12 U.S.C. 2001 et seq.); and
(E) the Federal Housing Finance Agency in the case of a swap dealer, major swap participant, security-based swap dealer, or major security-based swap participant that is a regulated entity (as such term is defined in section 4502 of title 12).","As used in this chapter:"
"7 U.S. Code § 1a","Definitions","Registered entity","The term “registered entity” means—
(A) a board of trade designated as a contract market under section 7 of this title;
(B) a derivatives clearing organization registered under section 7a–1 of this title;
(C) a board of trade designated as a contract market under section 7b–1 of this title;
(D) a swap execution facility registered under section 7b–3 of this title;
(E) a swap data repository registered under section 24a of this title; and
(F) with respect to a contract that the Commission determines is a significant price discovery contract, any electronic trading facility on which the contract is executed or traded.","As used in this chapter:"
"7 U.S. Code § 1a","Definitions","Security","The term “security” means a security as defined in section 2(a)(1) of the Securities Act of 1933 (15 U.S.C. 77b (a)(1)) orsection 3(a)(10) of the Securities Exchange Act of 1934 (15 U.S.C. 78c (a)(10)).","As used in this chapter:"
"7 U.S. Code § 1a","Definitions","Security-based swap","The term “security-based swap” has the meaning given the term in section 3(a) of the Securities Exchange Act of 1934 (15 U.S.C. 78c (a)).","As used in this chapter:"
"7 U.S. Code § 1a","Definitions","Security-based swap dealer","The term “security-based swap dealer” has the meaning given the term in section 3(a) of the Securities Exchange Act of 1934 (15 U.S.C. 78c (a)).","As used in this chapter:"
"7 U.S. Code § 1a","Definitions","Security future","The term “security future” means a contract of sale for future delivery of a single security or of a narrow-based security index, including any interest therein or based on the value thereof, except an exempted security under section 3(a)(12) of the Securities Exchange Act of 1934 [15 U.S.C. 78c (a)(12)] as in effect on January 11, 1983 (other than any municipal security as defined in section 3(a)(29) of the Securities Exchange Act of 1934 [15 U.S.C. 78c (a)(29)] as in effect on January 11, 1983). The term “security future” does not include any agreement, contract, or transaction excluded from this chapter under section 2 (c), 2 (d), 2 (f), or 2 (g) of this title (as in effect on December 21, 2000) or sections 27 to 27f of this title.","As used in this chapter:"
"7 U.S. Code § 1a","Definitions","Security futures product","The term “security futures product” means a security future or any put, call, straddle, option, or privilege on any security future.","As used in this chapter:"
"7 U.S. Code § 1a","Definitions","Significant price discovery contract","The term “significant price discovery contract” means an agreement, contract, or transaction subject to section 2 (h)(5) of this title.","As used in this chapter:"
"7 U.S. Code § 1a","Definitions","Swap","(A) In general
Except as provided in subparagraph (B), the term “swap” means any agreement, contract, or transaction—
(i) that is a put, call, cap, floor, collar, or similar option of any kind that is for the purchase or sale, or based on the value, of 1 or more interest or other rates, currencies, commodities, securities, instruments of indebtedness, indices, quantitative measures, or other financial or economic interests or property of any kind;
(ii) that provides for any purchase, sale, payment, or delivery (other than a dividend on an equity security) that is dependent on the occurrence, nonoccurrence, or the extent of the occurrence of an event or contingency associated with a potential financial, economic, or commercial consequence;
(iii) that provides on an executory basis for the exchange, on a fixed or contingent basis, of 1 or more payments based on the value or level of 1 or more interest or other rates, currencies, commodities, securities, instruments of indebtedness, indices, quantitative measures, or other financial or economic interests or property of any kind, or any interest therein or based on the value thereof, and that transfers, as between the parties to the transaction, in whole or in part, the financial risk associated with a future change in any such value or level without also conveying a current or future direct or indirect ownership interest in an asset (including any enterprise or investment pool) or liability that incorporates the financial risk so transferred, including any agreement, contract, or transaction commonly known as—
(I) an interest rate swap;
(II) a rate floor;
(III) a rate cap;
(IV) a rate collar;
(V) a cross-currency rate swap;
(VI) a basis swap;
(VII) a currency swap;
(VIII) a foreign exchange swap;
(IX) a total return swap;
(X) an equity index swap;
(XI) an equity swap;
(XII) a debt index swap;
(XIII) a debt swap;
(XIV) a credit spread;
(XV) a credit default swap;
(XVI) a credit swap;
(XVII) a weather swap;
(XVIII) an energy swap;
(XIX) a metal swap;
(XX) an agricultural swap;
(XXI) an emissions swap; and
(XXII) a commodity swap;
(iv) that is an agreement, contract, or transaction that is, or in the future becomes, commonly known to the trade as a swap;
(v) including any security-based swap agreement which meets the definition of “swap agreement” as defined in section 206A of the Gramm-Leach-Bliley Act (15 U.S.C. 78c note) of which a material term is based on the price, yield, value, or volatility of any security or any group or index of securities, or any interest therein; or
(vi) that is any combination or permutation of, or option on, any agreement, contract, or transaction described in any of clauses (i) through (v).
(B) Exclusions
The term “swap” does not include—
(i) any contract of sale of a commodity for future delivery (or option on such a contract), leverage contract authorized under section 23 of this title, security futures product, or agreement, contract, or transaction described in section 2 (c)(2)(C)(i) of this title or section 2 (c)(2)(D)(i) of this title;
(ii) any sale of a nonfinancial commodity or security for deferred shipment or delivery, so long as the transaction is intended to be physically settled;
(iii) any put, call, straddle, option, or privilege on any security, certificate of deposit, or group or index of securities, including any interest therein or based on the value thereof, that is subject to—
(I) the Securities Act of 1933 (15 U.S.C. 77a et seq.); and
(II) the Securities Exchange Act of 1934 (15 U.S.C. 78a et seq.);
(iv) any put, call, straddle, option, or privilege relating to a foreign currency entered into on a national securities exchange registered pursuant to section 6(a) of the Securities Exchange Act of 1934 (15 U.S.C. 78f (a));
(v) any agreement, contract, or transaction providing for the purchase or sale of 1 or more securities on a fixed basis that is subject to—
(I) the Securities Act of 1933 (15 U.S.C. 77a et seq.); and
(II) the Securities Exchange Act of 1934 (15 U.S.C. 78a et seq.);
(vi) any agreement, contract, or transaction providing for the purchase or sale of 1 or more securities on a contingent basis that is subject to the Securities Act of 1933 (15 U.S.C. 77a et seq.) and the Securities Exchange Act of 1934 (15 U.S.C. 78a et seq.), unless the agreement, contract, or transaction predicates the purchase or sale on the occurrence of a bona fide contingency that might reasonably be expected to affect or be affected by the creditworthiness of a party other than a party to the agreement, contract, or transaction;
(vii) any note, bond, or evidence of indebtedness that is a security, as defined in section 2(a)(1) of the Securities Act of 1933 (15 U.S.C. 77b (a)(1));
(viii) any agreement, contract, or transaction that is—
(I) based on a security; and
(II) entered into directly or through an underwriter (as defined in section 2(a)(11) of the Securities Act of 1933 (15 U.S.C. 77b (a)(11))  [5] by the issuer of such security for the purposes of raising capital, unless the agreement, contract, or transaction is entered into to manage a risk associated with capital raising;
(ix) any agreement, contract, or transaction a counterparty of which is a Federal Reserve bank, the Federal Government, or a Federal agency that is expressly backed by the full faith and credit of the United States; and
(x) any security-based swap, other than a security-based swap as described in subparagraph (D).
(C) Rule of construction regarding master agreements
(i) In general Except as provided in clause (ii), the term “swap” includes a master agreement that provides for an agreement, contract, or transaction that is a swap under subparagraph (A), together with each supplement to any master agreement, without regard to whether the master agreement contains an agreement, contract, or transaction that is not a swap pursuant to subparagraph (A).
(ii) Exception For purposes of clause (i), the master agreement shall be considered to be a swap only with respect to each agreement, contract, or transaction covered by the master agreement that is a swap pursuant to subparagraph (A).
(D) Mixed swap
The term “security-based swap” includes any agreement, contract, or transaction that is as described in section 3(a)(68)(A) of the Securities Exchange Act of 1934 (15 U.S.C. 78c (a)(68)(A)) and also is based on the value of 1 or more interest or other rates, currencies, commodities, instruments of indebtedness, indices, quantitative measures, other financial or economic interest or property of any kind (other than a single security or a narrow-based security index), or the occurrence, non-occurrence, or the extent of the occurrence of an event or contingency associated with a potential financial, economic, or commercial consequence (other than an event described in subparagraph (A)(iii)).
(E) Treatment of foreign exchange swaps and forwards
(i) In general Foreign exchange swaps and foreign exchange forwards shall be considered swaps under this paragraph unless the Secretary makes a written determination under section 1b of this title that either foreign exchange swaps or foreign exchange forwards or both—
(I) should be not be regulated as swaps under this chapter; and
(II) are not structured to evade the Dodd-Frank Wall Street Reform and Consumer Protection Act in violation of any rule promulgated by the Commission pursuant to section 721(c) of that Act [15 U.S.C. 8321 (b)].
(ii) Congressional notice; effectiveness The Secretary shall submit any written determination under clause (i) to the appropriate committees of Congress, including the Committee on Agriculture, Nutrition, and Forestry of the Senate and the Committee on Agriculture of the House of Representatives. Any such written determination by the Secretary shall not be effective until it is submitted to the appropriate committees of Congress.
(iii) Reporting Notwithstanding a written determination by the Secretary under clause (i), all foreign exchange swaps and foreign exchange forwards shall be reported to either a swap data repository, or, if there is no swap data repository that would accept such swaps or forwards, to the Commission pursuant to section 6r of this title within such time period as the Commission may by rule or regulation prescribe.
(iv) Business standards Notwithstanding a written determination by the Secretary pursuant to clause (i), any party to a foreign exchange swap or forward that is a swap dealer or major swap participant shall conform to the business conduct standards contained in section 6s (h) of this title.
(v) Secretary For purposes of this subparagraph, the term “Secretary” means the Secretary of the Treasury.
(F) Exception for certain foreign exchange swaps and forwards
(i) Registered entities Any foreign exchange swap and any foreign exchange forward that is listed and traded on or subject to the rules of a designated contract market or a swap execution facility, or that is cleared by a derivatives clearing organization, shall not be exempt from any provision of this chapter or amendments made by the Wall Street Transparency and Accountability Act of 2010 prohibiting fraud or manipulation.
(ii) Retail transactions Nothing in subparagraph (E) shall affect, or be construed to affect, the applicability of this chapter or the jurisdiction of the Commission with respect to agreements, contracts, or transactions in foreign currency pursuant to section 2 (c)(2) of this title.","As used in this chapter:"
"7 U.S. Code § 1a","Definitions","Swap data repository","The term “swap data repository” means any person that collects and maintains information or records with respect to transactions or positions in, or the terms and conditions of, swaps entered into by third parties for the purpose of providing a centralized recordkeeping facility for swaps.","As used in this chapter:"
"7 U.S. Code § 1a","Definitions","Swap dealer","(A) In general
The term “swap dealer” means any person who—
(i) holds itself out as a dealer in swaps;
(ii) makes a market in swaps;
(iii) regularly enters into swaps with counterparties as an ordinary course of business for its own account; or
(iv) engages in any activity causing the person to be commonly known in the trade as a dealer or market maker in swaps,
provided however, in no event shall an insured depository institution be considered to be a swap dealer to the extent it offers to enter into a swap with a customer in connection with originating a loan with that customer.
(B) Inclusion
A person may be designated as a swap dealer for a single type or single class or category of swap or activities and considered not to be a swap dealer for other types, classes, or categories of swaps or activities.
(C) Exception
The term “swap dealer” does not include a person that enters into swaps for such person’s own account, either individually or in a fiduciary capacity, but not as a part of a regular business.
(D) De minimis exception
The Commission shall exempt from designation as a swap dealer an entity that engages in a de minimis quantity of swap dealing in connection with transactions with or on behalf of its customers. The Commission shall promulgate regulations to establish factors with respect to the making of this determination to exempt.","As used in this chapter:"
"7 U.S. Code § 1a","Definitions","Swap execution facility","The term “swap execution facility” means a trading system or platform in which multiple participants have the ability to execute or trade swaps by accepting bids and offers made by multiple participants in the facility or system, through any means of interstate commerce, including any trading facility, that—
(A) facilitates the execution of swaps between persons; and
(B) is not a designated contract market.","As used in this chapter:"
"7 U.S. Code § 1a","Definitions","Trading facility","(A) In general
The term “trading facility” means a person or group of persons that constitutes, maintains, or provides a physical or electronic facility or system in which multiple participants have the ability to execute or trade agreements, contracts, or transactions—
(i) by accepting bids or offers made by other participants that are open to multiple participants in the facility or system; or
(ii) through the interaction of multiple bids or multiple offers within a system with a pre-determined non-discretionary automated trade matching and execution algorithm.
(B) Exclusions
The term “trading facility” does not include—
(i) a person or group of persons solely because the person or group of persons constitutes, maintains, or provides an electronic facility or system that enables participants to negotiate the terms of and enter into bilateral transactions as a result of communications exchanged by the parties and not from interaction of multiple bids and multiple offers within a predetermined, nondiscretionary automated trade matching and execution algorithm;
(ii) a government securities dealer or government securities broker, to the extent that the dealer or broker executes or trades agreements, contracts, or transactions in government securities, or assists persons in communicating about, negotiating, entering into, executing, or trading an agreement, contract, or transaction in government securities (as the terms “government securities dealer”, “government securities broker”, and “government securities” are defined in section 3(a) of the Securities Exchange Act of 1934 (15 U.S.C. 78c (a))); or
(iii) facilities on which bids and offers, and acceptances of bids and offers effected on the facility, are not binding.
 Any person, group of persons, dealer, broker, or facility described in clause (i) or (ii) is excluded from the meaning of the term “trading facility” for the purposes of this chapter without any prior specific approval, certification, or other action by the Commission.
(C) Special rule
A person or group of persons that would not otherwise constitute a trading facility shall not be considered to be a trading facility solely as a result of the submission to a derivatives clearing organization of transactions executed on or through the person or group of persons.","As used in this chapter:"
